{
  "definitions": {},
  "$schema": "http://json-schema.org/draft-07/schema#",
  "$id": "http://example.com/root.json",
  "type": "object",
  "title": "The Root Schema",
  "required": [
    "FirstName",
    "LastName",
    "DOB",
    "Gender",
    "Title"
  ],
  "properties": {
    "FirstName": {
      "$id": "#/properties/FirstName",
      "type": "string",
      "title": "The Firstname Schema",
      "default": "",
      "examples": [
        "Bob"
      ],
      "pattern": "^(.*)$"
    },
    "LastName": {
      "$id": "#/properties/LastName",
      "type": "string",
      "title": "The Lastname Schema",
      "default": "",
      "examples": [
        "Frederick"
      ],
      "pattern": "^(.*)$"
    },
    "DOB": {
      "$id": "#/properties/DOB",
      "type": "string",
      "title": "The Dob Schema",
      "default": "",
      "examples": [
        "06/21/1996"
      ],
      "pattern": "^(.*)$"
    },
    "Gender": {
      "$id": "#/properties/Gender",
      "type": "string",
      "title": "The Gender Schema",
      "default": "",
      "examples": [
        "Male"
      ],
      "pattern": "^(.*)$"
    },
    "Title": {
      "$id": "#/properties/Title",
      "type": "string",
      "title": "The Title Schema",
      "default": "",
      "examples": [
        "Manager"
      ],
      "pattern": "^(.*)$"
    }
  }
}